EESchema Schematic File Version 4
LIBS:8bitdoAdapter-cache
EELAYER 26 0
EELAYER END
$Descr A4 11693 8268
encoding utf-8
Sheet 1 8
Title ""
Date ""
Rev ""
Comp ""
Comment1 ""
Comment2 ""
Comment3 ""
Comment4 ""
$EndDescr
$Comp
L izzy:WiiExtensionController J2
U 1 1 5C3401F1
P 9950 1550
F 0 "J2" H 9931 2025 50  0000 C CNN
F 1 "WiiExtensionController" H 9931 1934 50  0000 C CNN
F 2 "izzy:WiiExtensionControllerPort" H 9950 1550 50  0001 C CNN
F 3 "" H 9950 1550 50  0001 C CNN
	1    9950 1550
	-1   0    0    -1  
$EndComp
$Comp
L Device:R R1
U 1 1 5C340252
P 9600 1850
F 0 "R1" H 9670 1896 50  0000 L CNN
F 1 "R" H 9670 1805 50  0000 L CNN
F 2 "Resistors_SMD:R_0805_HandSoldering" V 9530 1850 50  0001 C CNN
F 3 "~" H 9600 1850 50  0001 C CNN
	1    9600 1850
	-1   0    0    -1  
$EndComp
Wire Wire Line
	9750 1700 9600 1700
Wire Wire Line
	9600 2000 9600 2100
$Comp
L power:+3V3 #PWR02
U 1 1 5C340334
P 9400 1300
F 0 "#PWR02" H 9400 1150 50  0001 C CNN
F 1 "+3V3" H 9415 1473 50  0000 C CNN
F 2 "" H 9400 1300 50  0001 C CNN
F 3 "" H 9400 1300 50  0001 C CNN
	1    9400 1300
	-1   0    0    -1  
$EndComp
Wire Wire Line
	9750 1300 9400 1300
Wire Wire Line
	9150 1400 9750 1400
Text Label 9650 1500 2    50   ~ 0
SCK
Text Label 9650 1600 2    50   ~ 0
SDA
Wire Wire Line
	9600 1700 9500 1700
Connection ~ 9600 1700
Text Label 9500 1700 2    50   ~ 0
DET
$Sheet
S 2950 900  1050 300 
U 5C3992A2
F0 "Level Shifter 1" 50
F1 "Level Shifter.sch" 50
F2 "External" B L 2950 1100 50 
F3 "External+V" I L 2950 1000 50 
F4 "Internal+V" I R 4000 1000 50 
F5 "Internal" B R 4000 1100 50 
$EndSheet
$Sheet
S 2950 1350 1050 300 
U 5C39AA2C
F0 "Level Shifter 2" 50
F1 "Level Shifter.sch" 50
F2 "External" B L 2950 1550 50 
F3 "External+V" I L 2950 1450 50 
F4 "Internal+V" I R 4000 1450 50 
F6 "Internal" B R 4000 1550 50 
$EndSheet
$Sheet
S 2950 1800 1050 300 
U 5C39AB37
F0 "Level Shifter 3" 50
F1 "Level Shifter.sch" 50
F2 "External" B L 2950 2000 50 
F3 "External+V" I L 2950 1900 50 
F4 "Internal+V" I R 4000 1900 50 
F5 "Internal" B R 4000 2000 50 
$EndSheet
$Sheet
S 2950 2250 1050 300 
U 5C39AB99
F0 "Level Shifter 4" 50
F1 "Level Shifter.sch" 50
F2 "External" B L 2950 2450 50 
F3 "External+V" I L 2950 2350 50 
F4 "Internal+V" I R 4000 2350 50 
F5 "Internal" B R 4000 2450 50 
$EndSheet
$Sheet
S 2950 2700 1050 300 
U 5C39AC64
F0 "Level Shifter 5" 50
F1 "Level Shifter.sch" 50
F2 "External" B L 2950 2900 50 
F3 "External+V" I L 2950 2800 50 
F4 "Internal+V" I R 4000 2800 50 
F5 "Internal" B R 4000 2900 50 
$EndSheet
$Sheet
S 2950 3150 1050 300 
U 5C39AC69
F0 "Level Shifter 6" 50
F1 "Level Shifter.sch" 50
F2 "External" B L 2950 3350 50 
F3 "External+V" I L 2950 3250 50 
F4 "Internal+V" I R 4000 3250 50 
F5 "Internal" B R 4000 3350 50 
$EndSheet
$Sheet
S 2950 3600 1050 300 
U 5C39AC76
F0 "Level Shifter 7" 50
F1 "Level Shifter.sch" 50
F2 "External" B L 2950 3800 50 
F3 "External+V" I L 2950 3700 50 
F4 "Internal+V" I R 4000 3700 50 
F5 "Internal" B R 4000 3800 50 
$EndSheet
Wire Wire Line
	1700 900  1800 900 
Wire Wire Line
	1800 1000 1700 1000
Wire Wire Line
	1700 1100 1800 1100
Wire Wire Line
	1800 1200 1700 1200
Wire Wire Line
	1800 1300 1700 1300
Wire Wire Line
	1800 1400 1700 1400
Wire Wire Line
	1800 1500 1700 1500
Wire Wire Line
	1100 1000 1200 1000
Text Label 1100 1000 2    50   ~ 0
IN-COMM+
Text Label 1800 900  0    50   ~ 0
DATA1
Text Label 1800 1000 0    50   ~ 0
DATA2
Text Label 1800 1100 0    50   ~ 0
DATA3
Text Label 1800 1200 0    50   ~ 0
DATA4
Text Label 1800 1300 0    50   ~ 0
DATA5
Text Label 1800 1400 0    50   ~ 0
DATA6
Text Label 1800 1500 0    50   ~ 0
DATA7
Wire Wire Line
	2950 1000 2850 1000
Wire Wire Line
	2950 1100 2850 1100
Wire Wire Line
	2950 1450 2850 1450
Wire Wire Line
	2950 1550 2850 1550
Wire Wire Line
	2950 1900 2850 1900
Wire Wire Line
	2950 2000 2850 2000
Wire Wire Line
	4000 1000 4100 1000
Wire Wire Line
	4000 1100 4100 1100
Wire Wire Line
	4000 1450 4100 1450
Wire Wire Line
	4000 1550 4100 1550
Wire Wire Line
	4000 1900 4100 1900
Wire Wire Line
	4000 2000 4100 2000
Wire Wire Line
	2950 2350 2850 2350
Wire Wire Line
	2950 2450 2850 2450
Wire Wire Line
	2950 2800 2850 2800
Wire Wire Line
	2950 2900 2850 2900
Wire Wire Line
	2950 3250 2850 3250
Wire Wire Line
	2950 3350 2850 3350
Wire Wire Line
	2950 3700 2850 3700
Wire Wire Line
	2950 3800 2850 3800
Wire Wire Line
	4000 3800 4100 3800
Wire Wire Line
	4000 3700 4100 3700
Wire Wire Line
	4000 3350 4100 3350
Wire Wire Line
	4000 3250 4100 3250
Wire Wire Line
	4000 2900 4100 2900
Wire Wire Line
	4000 2800 4100 2800
Wire Wire Line
	4000 2450 4100 2450
Wire Wire Line
	4000 2350 4100 2350
Text Label 2850 1000 2    50   ~ 0
IN-COMM+
Text Label 2850 1450 2    50   ~ 0
IN-COMM+
Text Label 2850 1900 2    50   ~ 0
IN-COMM+
Text Label 2850 2350 2    50   ~ 0
IN-COMM+
Text Label 2850 2800 2    50   ~ 0
IN-COMM+
Text Label 2850 3250 2    50   ~ 0
IN-COMM+
Text Label 2850 3700 2    50   ~ 0
IN-COMM+
Text Label 2850 1100 2    50   ~ 0
DATA1
Text Label 2850 1550 2    50   ~ 0
DATA2
Text Label 2850 2000 2    50   ~ 0
DATA3
Text Label 2850 2450 2    50   ~ 0
DATA4
Text Label 2850 2900 2    50   ~ 0
DATA5
Text Label 2850 3350 2    50   ~ 0
DATA6
Text Label 2850 3800 2    50   ~ 0
DATA7
Text Label 4100 1100 0    50   ~ 0
MCU1-IO
Text Label 4100 1550 0    50   ~ 0
MCU2-IO
Text Label 4100 2000 0    50   ~ 0
MCU3-IO
Text Label 4100 2450 0    50   ~ 0
MCU4-IO
Text Label 4100 2900 0    50   ~ 0
MCU5-IO
Text Label 4100 3350 0    50   ~ 0
MCU6-IO
Text Label 4100 3800 0    50   ~ 0
MCU7-IO
Wire Wire Line
	1200 1300 1100 1300
Wire Wire Line
	1100 1400 1200 1400
Wire Wire Line
	1100 1500 1200 1500
Wire Wire Line
	1100 1600 1200 1600
Text Label 1100 1300 2    50   ~ 0
ID1
Text Label 1100 1400 2    50   ~ 0
ID2
Text Label 1100 1500 2    50   ~ 0
ID3
Text Label 1100 1600 2    50   ~ 0
ID4
$Comp
L izzy:STM32-SMART2 U1
U 1 1 5C3DDA7B
P 5550 1700
F 0 "U1" H 5531 2675 50  0000 C CNN
F 1 "STM32-SMART2" H 5531 2584 50  0000 C CNN
F 2 "izzy:STM32-SMART2" H 5750 2000 50  0001 C CNN
F 3 "" H 5750 2000 50  0001 C CNN
	1    5550 1700
	1    0    0    -1  
$EndComp
$Comp
L izzy:STM32-SMART2 U1
U 2 1 5C3DDAC4
P 6550 1700
F 0 "U1" H 6531 2675 50  0000 C CNN
F 1 "STM32-SMART2" H 6531 2584 50  0000 C CNN
F 2 "izzy:STM32-SMART2" H 6750 2000 50  0001 C CNN
F 3 "" H 6750 2000 50  0001 C CNN
	2    6550 1700
	1    0    0    -1  
$EndComp
$Comp
L izzy:STM32-SMART2 U1
U 3 1 5C3DDB0F
P 7550 1050
F 0 "U1" H 7531 1375 50  0000 C CNN
F 1 "STM32-SMART2" H 7531 1284 50  0000 C CNN
F 2 "izzy:STM32-SMART2" H 7750 1350 50  0001 C CNN
F 3 "" H 7750 1350 50  0001 C CNN
	3    7550 1050
	1    0    0    -1  
$EndComp
$Comp
L izzy:STM32-SMART2 U1
U 4 1 5C3DDB8E
P 7550 2000
F 0 "U1" H 7481 2675 50  0000 C CNN
F 1 "STM32-SMART2" H 7481 2584 50  0000 C CNN
F 2 "izzy:STM32-SMART2" H 7750 2300 50  0001 C CNN
F 3 "" H 7750 2300 50  0001 C CNN
	4    7550 2000
	1    0    0    -1  
$EndComp
Wire Wire Line
	5750 1550 5850 1550
Wire Wire Line
	5850 1450 5750 1450
Wire Wire Line
	5850 1350 5750 1350
Wire Wire Line
	5850 1250 5750 1250
Text Label 5850 1050 0    50   ~ 0
MCU7-IO
Text Label 5850 1150 0    50   ~ 0
MCU6-IO
Text Label 5850 1250 0    50   ~ 0
MCU5-IO
Text Label 5850 1350 0    50   ~ 0
MCU4-IO
Wire Wire Line
	5850 1150 5750 1150
Wire Wire Line
	6850 1550 6750 1550
Wire Wire Line
	5850 1050 5750 1050
Wire Wire Line
	5850 1650 5750 1650
Text Label 5850 1650 0    50   ~ 0
MCU1-IO
Text Label 5850 1550 0    50   ~ 0
MCU2-IO
Text Label 5850 1450 0    50   ~ 0
MCU3-IO
Wire Wire Line
	6850 1650 6750 1650
Text Label 6850 1550 0    50   ~ 0
SCK
Text Label 6850 1650 0    50   ~ 0
SDA
Wire Wire Line
	6850 2150 6750 2150
Wire Wire Line
	6850 2250 6750 2250
Wire Wire Line
	6850 2350 6750 2350
Wire Wire Line
	6850 2450 6750 2450
Text Label 6850 2450 0    50   ~ 0
ID4
Text Label 6850 2350 0    50   ~ 0
ID3
Text Label 6850 2250 0    50   ~ 0
ID2
Text Label 6850 2150 0    50   ~ 0
ID1
Wire Wire Line
	7750 2050 7850 2050
Wire Wire Line
	7850 2150 7750 2150
Wire Wire Line
	7850 2050 7850 2150
Connection ~ 7850 2150
Wire Wire Line
	7850 2150 7850 2250
Wire Wire Line
	7850 2250 7950 2250
Wire Wire Line
	7750 1750 7850 1750
Wire Wire Line
	7850 1750 7850 1850
Wire Wire Line
	7750 1850 7850 1850
Connection ~ 7850 1850
Wire Wire Line
	7850 1850 7850 1950
Wire Wire Line
	7850 1950 7950 1950
Wire Wire Line
	7750 1550 7850 1550
Wire Wire Line
	7850 1550 7850 1650
Wire Wire Line
	7850 1650 7750 1650
Wire Wire Line
	7850 1650 7950 1650
Connection ~ 7850 1650
NoConn ~ 7750 2350
NoConn ~ 7750 2450
NoConn ~ 6750 1750
NoConn ~ 6750 1450
NoConn ~ 6750 1350
NoConn ~ 6750 1250
NoConn ~ 6750 1150
NoConn ~ 6750 1050
NoConn ~ 6750 950 
NoConn ~ 5750 1850
NoConn ~ 5750 1950
NoConn ~ 5750 2050
NoConn ~ 5750 2150
NoConn ~ 5750 2450
NoConn ~ 7750 950 
NoConn ~ 7750 1050
NoConn ~ 7750 1150
NoConn ~ 5750 950 
Wire Wire Line
	6850 1850 6750 1850
Text Label 6850 1850 0    50   ~ 0
DET
$Comp
L Connector_Generic:Conn_02x08_Odd_Even J1
U 1 1 5C450840
P 1400 1200
F 0 "J1" H 1450 1717 50  0000 C CNN
F 1 "Conn_02x08_Odd_Even" H 1450 1626 50  0000 C CNN
F 2 "Connectors_IDC:IDC-Header_2x08_Pitch2.54mm_Straight" H 1400 1200 50  0001 C CNN
F 3 "~" H 1400 1200 50  0001 C CNN
	1    1400 1200
	1    0    0    -1  
$EndComp
$Comp
L Device:R R17
U 1 1 5C4B0D29
P 9000 1350
F 0 "R17" H 9070 1396 50  0000 L CNN
F 1 "R" H 9070 1305 50  0000 L CNN
F 2 "Resistors_SMD:R_0805_HandSoldering" V 8930 1350 50  0001 C CNN
F 3 "~" H 9000 1350 50  0001 C CNN
	1    9000 1350
	1    0    0    -1  
$EndComp
$Comp
L Device:R R16
U 1 1 5C4B0DF3
P 8700 1450
F 0 "R16" H 8770 1496 50  0000 L CNN
F 1 "R" H 8770 1405 50  0000 L CNN
F 2 "Resistors_SMD:R_0805_HandSoldering" V 8630 1450 50  0001 C CNN
F 3 "~" H 8700 1450 50  0001 C CNN
	1    8700 1450
	1    0    0    -1  
$EndComp
Wire Wire Line
	9150 1400 9150 2100
Wire Wire Line
	9000 1500 9750 1500
Wire Wire Line
	9400 1300 9200 1300
Wire Wire Line
	9200 1300 9200 1200
Wire Wire Line
	9200 1200 9000 1200
Connection ~ 9400 1300
Connection ~ 9000 1200
Wire Wire Line
	8700 1200 8700 1300
Wire Wire Line
	8700 1600 9750 1600
Wire Wire Line
	8700 1200 9000 1200
$Comp
L power:GND #PWR0101
U 1 1 5C4CC39D
P 1100 900
F 0 "#PWR0101" H 1100 650 50  0001 C CNN
F 1 "GND" V 1105 772 50  0000 R CNN
F 2 "" H 1100 900 50  0001 C CNN
F 3 "" H 1100 900 50  0001 C CNN
	1    1100 900 
	0    1    1    0   
$EndComp
$Comp
L power:+3V3 #PWR0102
U 1 1 5C4CF0E9
P 1000 1100
F 0 "#PWR0102" H 1000 950 50  0001 C CNN
F 1 "+3V3" V 1015 1228 50  0000 L CNN
F 2 "" H 1000 1100 50  0001 C CNN
F 3 "" H 1000 1100 50  0001 C CNN
	1    1000 1100
	0    -1   -1   0   
$EndComp
$Comp
L power:+5V #PWR0103
U 1 1 5C4D1F41
P 900 1200
F 0 "#PWR0103" H 900 1050 50  0001 C CNN
F 1 "+5V" V 915 1328 50  0000 L CNN
F 2 "" H 900 1200 50  0001 C CNN
F 3 "" H 900 1200 50  0001 C CNN
	1    900  1200
	0    -1   -1   0   
$EndComp
$Comp
L power:+3V3 #PWR0104
U 1 1 5C4D4DE4
P 4100 1000
F 0 "#PWR0104" H 4100 850 50  0001 C CNN
F 1 "+3V3" H 4115 1173 50  0000 C CNN
F 2 "" H 4100 1000 50  0001 C CNN
F 3 "" H 4100 1000 50  0001 C CNN
	1    4100 1000
	1    0    0    -1  
$EndComp
$Comp
L power:+3V3 #PWR0105
U 1 1 5C4D4E7F
P 4100 1900
F 0 "#PWR0105" H 4100 1750 50  0001 C CNN
F 1 "+3V3" H 4115 2073 50  0000 C CNN
F 2 "" H 4100 1900 50  0001 C CNN
F 3 "" H 4100 1900 50  0001 C CNN
	1    4100 1900
	1    0    0    -1  
$EndComp
$Comp
L power:+3V3 #PWR0106
U 1 1 5C4D4E9C
P 4100 1450
F 0 "#PWR0106" H 4100 1300 50  0001 C CNN
F 1 "+3V3" H 4115 1623 50  0000 C CNN
F 2 "" H 4100 1450 50  0001 C CNN
F 3 "" H 4100 1450 50  0001 C CNN
	1    4100 1450
	1    0    0    -1  
$EndComp
$Comp
L power:+3V3 #PWR0107
U 1 1 5C4D4EDE
P 4100 2350
F 0 "#PWR0107" H 4100 2200 50  0001 C CNN
F 1 "+3V3" H 4115 2523 50  0000 C CNN
F 2 "" H 4100 2350 50  0001 C CNN
F 3 "" H 4100 2350 50  0001 C CNN
	1    4100 2350
	1    0    0    -1  
$EndComp
$Comp
L power:+3V3 #PWR0108
U 1 1 5C4D4EFB
P 4100 2800
F 0 "#PWR0108" H 4100 2650 50  0001 C CNN
F 1 "+3V3" H 4115 2973 50  0000 C CNN
F 2 "" H 4100 2800 50  0001 C CNN
F 3 "" H 4100 2800 50  0001 C CNN
	1    4100 2800
	1    0    0    -1  
$EndComp
$Comp
L power:+3V3 #PWR0109
U 1 1 5C4D4F18
P 4100 3250
F 0 "#PWR0109" H 4100 3100 50  0001 C CNN
F 1 "+3V3" H 4115 3423 50  0000 C CNN
F 2 "" H 4100 3250 50  0001 C CNN
F 3 "" H 4100 3250 50  0001 C CNN
	1    4100 3250
	1    0    0    -1  
$EndComp
$Comp
L power:+3V3 #PWR0110
U 1 1 5C4D4F35
P 4100 3700
F 0 "#PWR0110" H 4100 3550 50  0001 C CNN
F 1 "+3V3" H 4115 3873 50  0000 C CNN
F 2 "" H 4100 3700 50  0001 C CNN
F 3 "" H 4100 3700 50  0001 C CNN
	1    4100 3700
	1    0    0    -1  
$EndComp
$Comp
L power:+3V3 #PWR0111
U 1 1 5C4D509F
P 7950 1950
F 0 "#PWR0111" H 7950 1800 50  0001 C CNN
F 1 "+3V3" H 7965 2123 50  0000 C CNN
F 2 "" H 7950 1950 50  0001 C CNN
F 3 "" H 7950 1950 50  0001 C CNN
	1    7950 1950
	1    0    0    -1  
$EndComp
$Comp
L power:+5V #PWR0112
U 1 1 5C4D50C5
P 7950 1650
F 0 "#PWR0112" H 7950 1500 50  0001 C CNN
F 1 "+5V" H 7965 1823 50  0000 C CNN
F 2 "" H 7950 1650 50  0001 C CNN
F 3 "" H 7950 1650 50  0001 C CNN
	1    7950 1650
	1    0    0    -1  
$EndComp
$Comp
L power:GND #PWR0113
U 1 1 5C4D519F
P 7950 2250
F 0 "#PWR0113" H 7950 2000 50  0001 C CNN
F 1 "GND" H 7955 2077 50  0000 C CNN
F 2 "" H 7950 2250 50  0001 C CNN
F 3 "" H 7950 2250 50  0001 C CNN
	1    7950 2250
	1    0    0    -1  
$EndComp
$Comp
L power:GND #PWR0114
U 1 1 5C4D5462
P 9150 2100
F 0 "#PWR0114" H 9150 1850 50  0001 C CNN
F 1 "GND" H 9155 1927 50  0000 C CNN
F 2 "" H 9150 2100 50  0001 C CNN
F 3 "" H 9150 2100 50  0001 C CNN
	1    9150 2100
	1    0    0    -1  
$EndComp
$Comp
L power:GND #PWR0115
U 1 1 5C4D547F
P 9600 2100
F 0 "#PWR0115" H 9600 1850 50  0001 C CNN
F 1 "GND" H 9605 1927 50  0000 C CNN
F 2 "" H 9600 2100 50  0001 C CNN
F 3 "" H 9600 2100 50  0001 C CNN
	1    9600 2100
	1    0    0    -1  
$EndComp
Wire Wire Line
	1000 1100 1200 1100
Wire Wire Line
	1200 1200 900  1200
Wire Wire Line
	1200 900  1100 900 
NoConn ~ 5750 1750
NoConn ~ 6750 1950
NoConn ~ 6750 2050
NoConn ~ 7750 2250
NoConn ~ 7750 1950
$EndSCHEMATC
