(kicad_pcb (version 20171130) (host pcbnew "(5.0.0-rc2-dev-733-g23a9fcd91)")

  (general
    (thickness 1.6)
    (drawings 4)
    (tracks 67)
    (zones 0)
    (modules 2)
    (nets 11)
  )

  (page A4)
  (layers
    (0 F.Cu signal)
    (31 B.Cu signal)
    (32 B.Adhes user)
    (33 F.Adhes user)
    (34 B.Paste user)
    (35 F.Paste user)
    (36 B.SilkS user)
    (37 F.SilkS user)
    (38 B.Mask user)
    (39 F.Mask user)
    (40 Dwgs.User user)
    (41 Cmts.User user)
    (42 Eco1.User user)
    (43 Eco2.User user)
    (44 Edge.Cuts user)
    (45 Margin user)
    (46 B.CrtYd user)
    (47 F.CrtYd user)
    (48 B.Fab user)
    (49 F.Fab user)
  )

  (setup
    (last_trace_width 0.25)
    (trace_clearance 0.2)
    (zone_clearance 0.508)
    (zone_45_only no)
    (trace_min 0.2)
    (segment_width 0.2)
    (edge_width 0.15)
    (via_size 0.8)
    (via_drill 0.4)
    (via_min_size 0.4)
    (via_min_drill 0.3)
    (uvia_size 0.3)
    (uvia_drill 0.1)
    (uvias_allowed no)
    (uvia_min_size 0.2)
    (uvia_min_drill 0.1)
    (pcb_text_width 0.3)
    (pcb_text_size 1.5 1.5)
    (mod_edge_width 0.15)
    (mod_text_size 1 1)
    (mod_text_width 0.15)
    (pad_size 1.524 1.524)
    (pad_drill 0.762)
    (pad_to_mask_clearance 0.2)
    (aux_axis_origin 0 0)
    (visible_elements FFFFFF7F)
    (pcbplotparams
      (layerselection 0x010fc_ffffffff)
      (usegerberextensions false)
      (usegerberattributes false)
      (usegerberadvancedattributes false)
      (creategerberjobfile false)
      (excludeedgelayer true)
      (linewidth 0.100000)
      (plotframeref false)
      (viasonmask false)
      (mode 1)
      (useauxorigin false)
      (hpglpennumber 1)
      (hpglpenspeed 20)
      (hpglpendiameter 15)
      (psnegative false)
      (psa4output false)
      (plotreference true)
      (plotvalue true)
      (plotinvisibletext false)
      (padsonsilk false)
      (subtractmaskfromsilk false)
      (outputformat 1)
      (mirror false)
      (drillshape 1)
      (scaleselection 1)
      (outputdirectory ""))
  )

  (net 0 "")
  (net 1 /Data5)
  (net 2 /GND)
  (net 3 /Select)
  (net 4 /Data4)
  (net 5 /+5V)
  (net 6 /Data3)
  (net 7 /Data2)
  (net 8 /Data1)
  (net 9 /Data0)
  (net 10 /+3V3)

  (net_class Default "This is the default net class."
    (clearance 0.2)
    (trace_width 0.25)
    (via_dia 0.8)
    (via_drill 0.4)
    (uvia_dia 0.3)
    (uvia_drill 0.1)
    (add_net /+3V3)
    (add_net /+5V)
    (add_net /Data0)
    (add_net /Data1)
    (add_net /Data2)
    (add_net /Data3)
    (add_net /Data4)
    (add_net /Data5)
    (add_net /GND)
    (add_net /Select)
  )

  (module Connectors_DSub:DSUB-9_Male_EdgeMount_Pitch2.77mm (layer B.Cu) (tedit 59F2C3AB) (tstamp 5C3E35C7)
    (at 124.46 89.535 270)
    (descr "9-pin D-Sub connector, solder-cups edge-mounted, male, x-pin-pitch 2.77mm, distance of mounting holes 25mm, see https://disti-assets.s3.amazonaws.com/tonar/files/datasheets/16730.pdf")
    (tags "9-pin D-Sub connector edge mount solder cup male x-pin-pitch 2.77mm mounting holes distance 25mm")
    (path /5C3D4AC7)
    (attr smd)
    (fp_text reference J1 (at -9.463333 0 270) (layer B.SilkS)
      (effects (font (size 1 1) (thickness 0.15)) (justify mirror))
    )
    (fp_text value SEGA (at 10.795 1.27) (layer F.Fab)
      (effects (font (size 1 1) (thickness 0.15)))
    )
    (fp_text user "PCB edge" (at -10.425 -1.323333 270) (layer Dwgs.User)
      (effects (font (size 0.5 0.5) (thickness 0.075)))
    )
    (fp_text user %R (at 0 -3.39 270) (layer B.Fab)
      (effects (font (size 1 1) (thickness 0.15)) (justify mirror))
    )
    (fp_line (start -15.425 -1.99) (end 15.425 -1.99) (layer Dwgs.User) (width 0.05))
    (fp_line (start -6.963333 2.24) (end -2.77 2.24) (layer B.SilkS) (width 0.12))
    (fp_line (start -6.963333 0) (end -6.963333 2.24) (layer B.SilkS) (width 0.12))
    (fp_line (start -6.723333 2) (end -6.723333 -1.74) (layer B.SilkS) (width 0.12))
    (fp_line (start 6.723333 2) (end -6.723333 2) (layer B.SilkS) (width 0.12))
    (fp_line (start 6.723333 -1.74) (end 6.723333 2) (layer B.SilkS) (width 0.12))
    (fp_line (start -7 -1.5) (end -7 2.25) (layer B.CrtYd) (width 0.05))
    (fp_line (start -8.05 -1.5) (end -7 -1.5) (layer B.CrtYd) (width 0.05))
    (fp_line (start -8.05 -4.3) (end -8.05 -1.5) (layer B.CrtYd) (width 0.05))
    (fp_line (start -9.05 -4.3) (end -8.05 -4.3) (layer B.CrtYd) (width 0.05))
    (fp_line (start -9.05 -8.8) (end -9.05 -4.3) (layer B.CrtYd) (width 0.05))
    (fp_line (start -15.95 -8.8) (end -9.05 -8.8) (layer B.CrtYd) (width 0.05))
    (fp_line (start -15.95 -10.2) (end -15.95 -8.8) (layer B.CrtYd) (width 0.05))
    (fp_line (start -8.65 -10.2) (end -15.95 -10.2) (layer B.CrtYd) (width 0.05))
    (fp_line (start -8.65 -16.2) (end -8.65 -10.2) (layer B.CrtYd) (width 0.05))
    (fp_line (start 8.65 -16.2) (end -8.65 -16.2) (layer B.CrtYd) (width 0.05))
    (fp_line (start 8.65 -10.2) (end 8.65 -16.2) (layer B.CrtYd) (width 0.05))
    (fp_line (start 15.95 -10.2) (end 8.65 -10.2) (layer B.CrtYd) (width 0.05))
    (fp_line (start 15.95 -8.8) (end 15.95 -10.2) (layer B.CrtYd) (width 0.05))
    (fp_line (start 9.05 -8.8) (end 15.95 -8.8) (layer B.CrtYd) (width 0.05))
    (fp_line (start 9.05 -4.3) (end 9.05 -8.8) (layer B.CrtYd) (width 0.05))
    (fp_line (start 8.05 -4.3) (end 9.05 -4.3) (layer B.CrtYd) (width 0.05))
    (fp_line (start 8.05 -1.5) (end 8.05 -4.3) (layer B.CrtYd) (width 0.05))
    (fp_line (start 7 -1.5) (end 8.05 -1.5) (layer B.CrtYd) (width 0.05))
    (fp_line (start 7 2.25) (end 7 -1.5) (layer B.CrtYd) (width 0.05))
    (fp_line (start -7 2.25) (end 7 2.25) (layer B.CrtYd) (width 0.05))
    (fp_line (start 8.15 -9.69) (end -8.15 -9.69) (layer B.Fab) (width 0.1))
    (fp_line (start 8.15 -15.69) (end 8.15 -9.69) (layer B.Fab) (width 0.1))
    (fp_line (start -8.15 -15.69) (end 8.15 -15.69) (layer B.Fab) (width 0.1))
    (fp_line (start -8.15 -9.69) (end -8.15 -15.69) (layer B.Fab) (width 0.1))
    (fp_line (start 15.425 -9.29) (end -15.425 -9.29) (layer B.Fab) (width 0.1))
    (fp_line (start 15.425 -9.69) (end 15.425 -9.29) (layer B.Fab) (width 0.1))
    (fp_line (start -15.425 -9.69) (end 15.425 -9.69) (layer B.Fab) (width 0.1))
    (fp_line (start -15.425 -9.29) (end -15.425 -9.69) (layer B.Fab) (width 0.1))
    (fp_line (start 8.55 -4.79) (end -8.55 -4.79) (layer B.Fab) (width 0.1))
    (fp_line (start 8.55 -9.29) (end 8.55 -4.79) (layer B.Fab) (width 0.1))
    (fp_line (start -8.55 -9.29) (end 8.55 -9.29) (layer B.Fab) (width 0.1))
    (fp_line (start -8.55 -4.79) (end -8.55 -9.29) (layer B.Fab) (width 0.1))
    (fp_line (start 7.55 -1.99) (end -7.55 -1.99) (layer B.Fab) (width 0.1))
    (fp_line (start 7.55 -4.79) (end 7.55 -1.99) (layer B.Fab) (width 0.1))
    (fp_line (start -7.55 -4.79) (end 7.55 -4.79) (layer B.Fab) (width 0.1))
    (fp_line (start -7.55 -1.99) (end -7.55 -4.79) (layer B.Fab) (width 0.1))
    (fp_line (start 4.755 0.91) (end 3.555 0.91) (layer F.Fab) (width 0.1))
    (fp_line (start 4.755 -1.99) (end 4.755 0.91) (layer F.Fab) (width 0.1))
    (fp_line (start 3.555 -1.99) (end 4.755 -1.99) (layer F.Fab) (width 0.1))
    (fp_line (start 3.555 0.91) (end 3.555 -1.99) (layer F.Fab) (width 0.1))
    (fp_line (start 1.985 0.91) (end 0.785 0.91) (layer F.Fab) (width 0.1))
    (fp_line (start 1.985 -1.99) (end 1.985 0.91) (layer F.Fab) (width 0.1))
    (fp_line (start 0.785 -1.99) (end 1.985 -1.99) (layer F.Fab) (width 0.1))
    (fp_line (start 0.785 0.91) (end 0.785 -1.99) (layer F.Fab) (width 0.1))
    (fp_line (start -0.785 0.91) (end -1.985 0.91) (layer F.Fab) (width 0.1))
    (fp_line (start -0.785 -1.99) (end -0.785 0.91) (layer F.Fab) (width 0.1))
    (fp_line (start -1.985 -1.99) (end -0.785 -1.99) (layer F.Fab) (width 0.1))
    (fp_line (start -1.985 0.91) (end -1.985 -1.99) (layer F.Fab) (width 0.1))
    (fp_line (start -3.555 0.91) (end -4.755 0.91) (layer F.Fab) (width 0.1))
    (fp_line (start -3.555 -1.99) (end -3.555 0.91) (layer F.Fab) (width 0.1))
    (fp_line (start -4.755 -1.99) (end -3.555 -1.99) (layer F.Fab) (width 0.1))
    (fp_line (start -4.755 0.91) (end -4.755 -1.99) (layer F.Fab) (width 0.1))
    (fp_line (start 6.14 0.91) (end 4.94 0.91) (layer B.Fab) (width 0.1))
    (fp_line (start 6.14 -1.99) (end 6.14 0.91) (layer B.Fab) (width 0.1))
    (fp_line (start 4.94 -1.99) (end 6.14 -1.99) (layer B.Fab) (width 0.1))
    (fp_line (start 4.94 0.91) (end 4.94 -1.99) (layer B.Fab) (width 0.1))
    (fp_line (start 3.37 0.91) (end 2.17 0.91) (layer B.Fab) (width 0.1))
    (fp_line (start 3.37 -1.99) (end 3.37 0.91) (layer B.Fab) (width 0.1))
    (fp_line (start 2.17 -1.99) (end 3.37 -1.99) (layer B.Fab) (width 0.1))
    (fp_line (start 2.17 0.91) (end 2.17 -1.99) (layer B.Fab) (width 0.1))
    (fp_line (start 0.6 0.91) (end -0.6 0.91) (layer B.Fab) (width 0.1))
    (fp_line (start 0.6 -1.99) (end 0.6 0.91) (layer B.Fab) (width 0.1))
    (fp_line (start -0.6 -1.99) (end 0.6 -1.99) (layer B.Fab) (width 0.1))
    (fp_line (start -0.6 0.91) (end -0.6 -1.99) (layer B.Fab) (width 0.1))
    (fp_line (start -2.17 0.91) (end -3.37 0.91) (layer B.Fab) (width 0.1))
    (fp_line (start -2.17 -1.99) (end -2.17 0.91) (layer B.Fab) (width 0.1))
    (fp_line (start -3.37 -1.99) (end -2.17 -1.99) (layer B.Fab) (width 0.1))
    (fp_line (start -3.37 0.91) (end -3.37 -1.99) (layer B.Fab) (width 0.1))
    (fp_line (start -4.94 0.91) (end -6.14 0.91) (layer B.Fab) (width 0.1))
    (fp_line (start -4.94 -1.99) (end -4.94 0.91) (layer B.Fab) (width 0.1))
    (fp_line (start -6.14 -1.99) (end -4.94 -1.99) (layer B.Fab) (width 0.1))
    (fp_line (start -6.14 0.91) (end -6.14 -1.99) (layer B.Fab) (width 0.1))
    (pad 9 smd rect (at 4.155 0 270) (size 1.846667 3.48) (layers F.Cu F.Paste F.Mask)
      (net 1 /Data5))
    (pad 8 smd rect (at 1.385 0 270) (size 1.846667 3.48) (layers F.Cu F.Paste F.Mask)
      (net 2 /GND))
    (pad 7 smd rect (at -1.385 0 270) (size 1.846667 3.48) (layers F.Cu F.Paste F.Mask)
      (net 3 /Select))
    (pad 6 smd rect (at -4.155 0 270) (size 1.846667 3.48) (layers F.Cu F.Paste F.Mask)
      (net 4 /Data4))
    (pad 5 smd rect (at 5.54 0 270) (size 1.846667 3.48) (layers B.Cu B.Paste B.Mask)
      (net 5 /+5V))
    (pad 4 smd rect (at 2.77 0 270) (size 1.846667 3.48) (layers B.Cu B.Paste B.Mask)
      (net 6 /Data3))
    (pad 3 smd rect (at 0 0 270) (size 1.846667 3.48) (layers B.Cu B.Paste B.Mask)
      (net 7 /Data2))
    (pad 2 smd rect (at -2.77 0 270) (size 1.846667 3.48) (layers B.Cu B.Paste B.Mask)
      (net 8 /Data1))
    (pad 1 smd rect (at -5.54 0 270) (size 1.846667 3.48) (layers B.Cu B.Paste B.Mask)
      (net 9 /Data0))
    (model ${KISYS3DMOD}/Connectors_DSub.3dshapes/DSUB-9_Male_EdgeMount_Pitch2.77mm.wrl
      (at (xyz 0 0 0))
      (scale (xyz 1 1 1))
      (rotate (xyz 0 0 0))
    )
  )

  (module Connectors_IDC:IDC-Header_2x08_Pitch2.54mm_Straight (layer F.Cu) (tedit 59DE0341) (tstamp 5C3E30BD)
    (at 114.625 80.5865)
    (descr "16 pins through hole IDC header")
    (tags "IDC header socket VASCH")
    (path /5C3D4B20)
    (fp_text reference J2 (at 1.27 -6.604) (layer F.SilkS)
      (effects (font (size 1 1) (thickness 0.15)))
    )
    (fp_text value ADAPTER (at 1.27 24.384) (layer F.Fab)
      (effects (font (size 1 1) (thickness 0.15)))
    )
    (fp_line (start -3.655 -5.6) (end -1.115 -5.6) (layer F.SilkS) (width 0.12))
    (fp_line (start -3.655 -5.6) (end -3.655 -3.06) (layer F.SilkS) (width 0.12))
    (fp_line (start -3.405 -5.35) (end 5.945 -5.35) (layer F.SilkS) (width 0.12))
    (fp_line (start -3.405 23.13) (end -3.405 -5.35) (layer F.SilkS) (width 0.12))
    (fp_line (start 5.945 23.13) (end -3.405 23.13) (layer F.SilkS) (width 0.12))
    (fp_line (start 5.945 -5.35) (end 5.945 23.13) (layer F.SilkS) (width 0.12))
    (fp_line (start -3.91 -5.85) (end 6.2 -5.85) (layer F.CrtYd) (width 0.05))
    (fp_line (start -3.91 23.38) (end -3.91 -5.85) (layer F.CrtYd) (width 0.05))
    (fp_line (start 6.2 23.38) (end -3.91 23.38) (layer F.CrtYd) (width 0.05))
    (fp_line (start 6.2 -5.85) (end 6.2 23.38) (layer F.CrtYd) (width 0.05))
    (fp_line (start -3.155 22.88) (end -2.605 22.32) (layer F.Fab) (width 0.1))
    (fp_line (start -3.155 -5.1) (end -2.605 -4.56) (layer F.Fab) (width 0.1))
    (fp_line (start 5.695 22.88) (end 5.145 22.32) (layer F.Fab) (width 0.1))
    (fp_line (start 5.695 -5.1) (end 5.145 -4.56) (layer F.Fab) (width 0.1))
    (fp_line (start 5.145 22.32) (end -2.605 22.32) (layer F.Fab) (width 0.1))
    (fp_line (start 5.695 22.88) (end -3.155 22.88) (layer F.Fab) (width 0.1))
    (fp_line (start 5.145 -4.56) (end -2.605 -4.56) (layer F.Fab) (width 0.1))
    (fp_line (start 5.695 -5.1) (end -3.155 -5.1) (layer F.Fab) (width 0.1))
    (fp_line (start -2.605 11.14) (end -3.155 11.14) (layer F.Fab) (width 0.1))
    (fp_line (start -2.605 6.64) (end -3.155 6.64) (layer F.Fab) (width 0.1))
    (fp_line (start -2.605 11.14) (end -2.605 22.32) (layer F.Fab) (width 0.1))
    (fp_line (start -2.605 -4.56) (end -2.605 6.64) (layer F.Fab) (width 0.1))
    (fp_line (start -3.155 -5.1) (end -3.155 22.88) (layer F.Fab) (width 0.1))
    (fp_line (start 5.145 -4.56) (end 5.145 22.32) (layer F.Fab) (width 0.1))
    (fp_line (start 5.695 -5.1) (end 5.695 22.88) (layer F.Fab) (width 0.1))
    (fp_text user %R (at 1.27 8.89) (layer F.Fab)
      (effects (font (size 1 1) (thickness 0.15)))
    )
    (pad 16 thru_hole oval (at 2.54 17.78) (size 1.7272 1.7272) (drill 1.016) (layers *.Cu *.Mask))
    (pad 15 thru_hole oval (at 0 17.78) (size 1.7272 1.7272) (drill 1.016) (layers *.Cu *.Mask)
      (net 2 /GND))
    (pad 14 thru_hole oval (at 2.54 15.24) (size 1.7272 1.7272) (drill 1.016) (layers *.Cu *.Mask)
      (net 3 /Select))
    (pad 13 thru_hole oval (at 0 15.24) (size 1.7272 1.7272) (drill 1.016) (layers *.Cu *.Mask)
      (net 10 /+3V3))
    (pad 12 thru_hole oval (at 2.54 12.7) (size 1.7272 1.7272) (drill 1.016) (layers *.Cu *.Mask)
      (net 1 /Data5))
    (pad 11 thru_hole oval (at 0 12.7) (size 1.7272 1.7272) (drill 1.016) (layers *.Cu *.Mask)
      (net 2 /GND))
    (pad 10 thru_hole oval (at 2.54 10.16) (size 1.7272 1.7272) (drill 1.016) (layers *.Cu *.Mask)
      (net 4 /Data4))
    (pad 9 thru_hole oval (at 0 10.16) (size 1.7272 1.7272) (drill 1.016) (layers *.Cu *.Mask)
      (net 2 /GND))
    (pad 8 thru_hole oval (at 2.54 7.62) (size 1.7272 1.7272) (drill 1.016) (layers *.Cu *.Mask)
      (net 6 /Data3))
    (pad 7 thru_hole oval (at 0 7.62) (size 1.7272 1.7272) (drill 1.016) (layers *.Cu *.Mask)
      (net 5 /+5V))
    (pad 6 thru_hole oval (at 2.54 5.08) (size 1.7272 1.7272) (drill 1.016) (layers *.Cu *.Mask)
      (net 7 /Data2))
    (pad 5 thru_hole oval (at 0 5.08) (size 1.7272 1.7272) (drill 1.016) (layers *.Cu *.Mask)
      (net 10 /+3V3))
    (pad 4 thru_hole oval (at 2.54 2.54) (size 1.7272 1.7272) (drill 1.016) (layers *.Cu *.Mask)
      (net 8 /Data1))
    (pad 3 thru_hole oval (at 0 2.54) (size 1.7272 1.7272) (drill 1.016) (layers *.Cu *.Mask)
      (net 5 /+5V))
    (pad 2 thru_hole oval (at 2.54 0) (size 1.7272 1.7272) (drill 1.016) (layers *.Cu *.Mask)
      (net 9 /Data0))
    (pad 1 thru_hole rect (at 0 0) (size 1.7272 1.7272) (drill 1.016) (layers *.Cu *.Mask)
      (net 2 /GND))
    (model ${KISYS3DMOD}/Connectors_IDC.3dshapes/IDC-Header_2x08_Pitch2.54mm_Straight.wrl
      (at (xyz 0 0 0))
      (scale (xyz 1 1 1))
      (rotate (xyz 0 0 0))
    )
  )

  (gr_line (start 110.49 104.14) (end 110.49 74.93) (layer Edge.Cuts) (width 0.2))
  (gr_line (start 126.365 104.14) (end 110.49 104.14) (layer Edge.Cuts) (width 0.2))
  (gr_line (start 126.365 74.93) (end 126.365 104.14) (layer Edge.Cuts) (width 0.2))
  (gr_line (start 110.49 74.93) (end 126.365 74.93) (layer Edge.Cuts) (width 0.2))

  (segment (start 124.46 93.69) (end 122.3947 93.69) (width 0.25) (layer F.Cu) (net 1))
  (segment (start 117.165 93.2865) (end 121.9912 93.2865) (width 0.25) (layer F.Cu) (net 1))
  (segment (start 121.9912 93.2865) (end 122.3947 93.69) (width 0.25) (layer F.Cu) (net 1))
  (segment (start 116.4265 92.0976) (end 118.7657 92.0976) (width 0.25) (layer F.Cu) (net 2))
  (segment (start 118.7657 92.0976) (end 118.8325 92.1644) (width 0.25) (layer F.Cu) (net 2))
  (segment (start 118.8325 92.1644) (end 121.1503 92.1644) (width 0.25) (layer F.Cu) (net 2))
  (segment (start 121.1503 92.1644) (end 122.3947 90.92) (width 0.25) (layer F.Cu) (net 2))
  (segment (start 114.625 80.5865) (end 114.625 81.7754) (width 0.25) (layer F.Cu) (net 2))
  (segment (start 114.625 81.7754) (end 114.9966 81.7754) (width 0.25) (layer F.Cu) (net 2))
  (segment (start 114.9966 81.7754) (end 115.8139 82.5927) (width 0.25) (layer F.Cu) (net 2))
  (segment (start 115.8139 82.5927) (end 115.8139 90.7465) (width 0.25) (layer F.Cu) (net 2))
  (segment (start 116.4265 92.0976) (end 115.8139 92.7102) (width 0.25) (layer F.Cu) (net 2))
  (segment (start 115.8139 92.7102) (end 115.8139 93.2865) (width 0.25) (layer F.Cu) (net 2))
  (segment (start 115.8139 90.7465) (end 115.8139 91.485) (width 0.25) (layer F.Cu) (net 2))
  (segment (start 115.8139 91.485) (end 116.4265 92.0976) (width 0.25) (layer F.Cu) (net 2))
  (segment (start 114.625 90.7465) (end 115.8139 90.7465) (width 0.25) (layer F.Cu) (net 2))
  (segment (start 114.625 98.3665) (end 114.625 97.1776) (width 0.25) (layer F.Cu) (net 2))
  (segment (start 115.8139 93.2865) (end 115.8139 96.3603) (width 0.25) (layer F.Cu) (net 2))
  (segment (start 115.8139 96.3603) (end 114.9966 97.1776) (width 0.25) (layer F.Cu) (net 2))
  (segment (start 114.9966 97.1776) (end 114.625 97.1776) (width 0.25) (layer F.Cu) (net 2))
  (segment (start 114.625 93.2865) (end 115.8139 93.2865) (width 0.25) (layer F.Cu) (net 2))
  (segment (start 124.46 90.92) (end 122.3947 90.92) (width 0.25) (layer F.Cu) (net 2))
  (segment (start 117.165 95.8265) (end 117.165 94.6376) (width 0.25) (layer B.Cu) (net 3))
  (segment (start 124.46 88.15) (end 122.3947 88.15) (width 0.25) (layer F.Cu) (net 3))
  (segment (start 119.1329 91.4391) (end 122.3947 88.1773) (width 0.25) (layer F.Cu) (net 3))
  (segment (start 122.3947 88.1773) (end 122.3947 88.15) (width 0.25) (layer F.Cu) (net 3))
  (segment (start 117.165 94.6376) (end 117.5365 94.6376) (width 0.25) (layer B.Cu) (net 3))
  (segment (start 117.5365 94.6376) (end 119.1329 93.0412) (width 0.25) (layer B.Cu) (net 3))
  (segment (start 119.1329 93.0412) (end 119.1329 91.4391) (width 0.25) (layer B.Cu) (net 3))
  (via (at 119.1329 91.4391) (size 0.8) (layers F.Cu B.Cu) (net 3))
  (segment (start 124.46 85.38) (end 122.3947 85.38) (width 0.25) (layer F.Cu) (net 4))
  (segment (start 117.165 90.7465) (end 118.3539 90.7465) (width 0.25) (layer F.Cu) (net 4))
  (segment (start 118.3539 90.7465) (end 122.3947 86.7057) (width 0.25) (layer F.Cu) (net 4))
  (segment (start 122.3947 86.7057) (end 122.3947 85.38) (width 0.25) (layer F.Cu) (net 4))
  (segment (start 122.3947 95.075) (end 122.3947 93.6751) (width 0.25) (layer B.Cu) (net 5))
  (segment (start 122.3947 93.6751) (end 118.1961 89.4765) (width 0.25) (layer B.Cu) (net 5))
  (segment (start 118.1961 89.4765) (end 116.4836 89.4765) (width 0.25) (layer B.Cu) (net 5))
  (segment (start 116.4836 89.4765) (end 114.625 87.6179) (width 0.25) (layer B.Cu) (net 5))
  (segment (start 124.46 95.075) (end 122.3947 95.075) (width 0.25) (layer B.Cu) (net 5))
  (segment (start 114.625 87.6179) (end 114.625 87.0176) (width 0.25) (layer B.Cu) (net 5))
  (segment (start 114.625 88.2065) (end 114.625 87.6179) (width 0.25) (layer B.Cu) (net 5))
  (segment (start 114.625 83.1265) (end 114.625 84.3154) (width 0.25) (layer B.Cu) (net 5))
  (segment (start 114.625 84.3154) (end 114.9965 84.3154) (width 0.25) (layer B.Cu) (net 5))
  (segment (start 114.9965 84.3154) (end 115.8139 85.1328) (width 0.25) (layer B.Cu) (net 5))
  (segment (start 115.8139 85.1328) (end 115.8139 86.2003) (width 0.25) (layer B.Cu) (net 5))
  (segment (start 115.8139 86.2003) (end 114.9966 87.0176) (width 0.25) (layer B.Cu) (net 5))
  (segment (start 114.9966 87.0176) (end 114.625 87.0176) (width 0.25) (layer B.Cu) (net 5))
  (segment (start 124.46 92.305) (end 122.3947 92.305) (width 0.25) (layer B.Cu) (net 6))
  (segment (start 117.165 88.2065) (end 118.3539 88.2065) (width 0.25) (layer B.Cu) (net 6))
  (segment (start 118.3539 88.2065) (end 122.3947 92.2473) (width 0.25) (layer B.Cu) (net 6))
  (segment (start 122.3947 92.2473) (end 122.3947 92.305) (width 0.25) (layer B.Cu) (net 6))
  (segment (start 117.165 85.6665) (end 118.3539 85.6665) (width 0.25) (layer B.Cu) (net 7))
  (segment (start 118.3539 85.6665) (end 122.2224 89.535) (width 0.25) (layer B.Cu) (net 7))
  (segment (start 122.2224 89.535) (end 124.46 89.535) (width 0.25) (layer B.Cu) (net 7))
  (segment (start 117.165 83.1265) (end 118.3539 83.1265) (width 0.25) (layer B.Cu) (net 8))
  (segment (start 118.3539 83.1265) (end 121.9924 86.765) (width 0.25) (layer B.Cu) (net 8))
  (segment (start 121.9924 86.765) (end 124.46 86.765) (width 0.25) (layer B.Cu) (net 8))
  (segment (start 124.46 83.995) (end 122.3947 83.995) (width 0.25) (layer B.Cu) (net 9))
  (segment (start 117.165 80.5865) (end 118.9862 80.5865) (width 0.25) (layer B.Cu) (net 9))
  (segment (start 118.9862 80.5865) (end 122.3947 83.995) (width 0.25) (layer B.Cu) (net 9))
  (segment (start 114.625 95.8265) (end 114.625 94.6376) (width 0.25) (layer F.Cu) (net 10))
  (segment (start 114.625 85.6665) (end 114.625 86.8554) (width 0.25) (layer F.Cu) (net 10))
  (segment (start 114.625 86.8554) (end 114.2535 86.8554) (width 0.25) (layer F.Cu) (net 10))
  (segment (start 114.2535 86.8554) (end 113.4361 87.6728) (width 0.25) (layer F.Cu) (net 10))
  (segment (start 113.4361 87.6728) (end 113.4361 93.8203) (width 0.25) (layer F.Cu) (net 10))
  (segment (start 113.4361 93.8203) (end 114.2534 94.6376) (width 0.25) (layer F.Cu) (net 10))
  (segment (start 114.2534 94.6376) (end 114.625 94.6376) (width 0.25) (layer F.Cu) (net 10))

)
